[
{"TimeStamp" : "14-33-24",
 "LabelName" : "Hindernis 1 Auffahrt",
 "LabelFarbe" : "Gruen"},
{"TimeStamp" : "14-33-27",
 "LabelName" : "Hindernis 1 Abfahrt",
 "LabelFarbe" : "Gelb"},
{"TimeStamp" : "14-37-11",
 "LabelName" : "Hindernis 3 Auffahrt",
 "LabelFarbe" : "Blau"},
{"TimeStamp" : "14-37-16",
 "LabelName" : "Hindernis 3 Abfahrt",
 "LabelFarbe" : "Pink"}
]